[
  {
    "outputFileName": "assets/global/css/components.min.css",
    "inputFiles": [
      "assets/global/css/components.css"
    ]
  },
  {
    "outputFileName": "bower_components/daypilot/daypilot.min.js",
    "inputFiles": [
      "bower_components/daypilot/daypilot.js"
    ]
  }
]
